Resultados de AOS
----------------------------------------------------------------------------------------------

	Manteniendo las iteraciones por defecto (100)
	-------------------------------------------------------------------------------
		Con 250 cuerpos
		-----------------------------------------------------------------
			1.	0,322777
			2.	0,322927
			3.	0,323141
			4.	0,327293
			5.	0,329924
			6.	0,328643
			7.	0,325232
			8.	0,328647
			9.	0,330964
			10.	0,329838


		Con 500 cuerpos
		-----------------------------------------------------------------
			1.	1,28391
			2.	1,29339
			3.	1,28603
			4.	1,28958
			5.	1,28468
			6.	1,29168
			7.	1,28804
			8.	1,28938
			9.	1,29216
			10.	1,29548


		Con 750 cuerpos
		-----------------------------------------------------------------
			1.	2,88681
			2.	2,8861
			3.	2,89401
			4.	2,8875
			5.	2,8911
			6.	2,88567
			7.	2,8914
			8.	2,88611
			9.	2,88458
			10.	2,90124


		Con 1000 cuerpos
		-----------------------------------------------------------------
			1.	5,12371
			2.	5,14005
			3.	5,12686
			4.	5,12565
			5.	5,12577
			6.	5,13271
			7.	5,14512
			8.	5,12555
			9.	5,12332
			10.	5,13286


	Manteniendo los cuerpos por defecto (250)
	-------------------------------------------------------------------------------
		Con 50 iteraciones
		-----------------------------------------------------------------
			1.	0,166424
			2.	0,170449
			3.	0,167184
			4.	0,165314
			5.	0,179883
			6.	0,169632
			7.	0,169967
			8.	0,166614
			9.	0,165291
			10.	0,16581


		Con 100 iteraciones
		-----------------------------------------------------------------
			1.	0,322777
			2.	0,322927
			3.	0,323141
			4.	0,327293
			5.	0,329924
			6.	0,328643
			7.	0,325232
			8.	0,328647
			9.	0,330964
			10.	0,329838


		Con 150 iteraciones
		-----------------------------------------------------------------
			1.	0,490134
			2.	0,488501
			3.	0,48727
			4.	0,484418
			5.	0,488118
			6.	0,487344
			7.	0,489733
			8.	0,486937
			9.	0,572602
			10.	0,481705


		Con 200 iteraciones
		-----------------------------------------------------------------
			1.	0,640653
			2.	0,641267
			3.	0,643429
			4.	0,643608
			5.	0,644778
			6.	0,646404
			7.	0,642018
			8.	0,642445
			9.	0,643504
			10.	0,645039


