Resultados de SOA
----------------------------------------------------------------------------------------------

	Manteniendo las iteraciones por defecto (100)
	-------------------------------------------------------------------------------
		Con 250 cuerpos
		-----------------------------------------------------------------
			1.	2,04954
			2.	2,03873
			3.	2,04624
			4.	2,04351
			5.	2,04123
			6.	2,04607
			7.	2,03421
			8.	2,05379
			9.	2,04879
			10.	2,04591


		Con 500 cuerpos
		-----------------------------------------------------------------
			1.	4,31729
			2.	4,29922
			3.	4,23954
			4.	4,27087
			5.	4,28972
			6.	4,31964
			7.	4,28731
			8.	4,29983
			9.	4,28424
			10.	4,29258


		Con 750 cuerpos
		-----------------------------------------------------------------
			1.	6,64799
			2.	6,62951
			3.	6,61178
			4.	6,59929
			5.	6,62582
			6.	6,63383
			7.	6,64323
			8.	6,59932
			9.	6,60066
			10.	6,6303


		Con 1000 cuerpos
		-----------------------------------------------------------------
			1.	9,11192
			2.	9,06932
			3.	8,98278
			4.	9,09762
			5.	9,10979
			6.	9,13987
			7.	9,0186
			8.	9,12009
			9.	9,02632
			10.	9,09217


	Manteniendo los cuerpos por defecto (250)
	-------------------------------------------------------------------------------
		Con 50 iteraciones
		-----------------------------------------------------------------
			1.	1,02644
			2.	1,03235
			3.	1,02529
			4.	1,04335
			5.	1,02869
			6.	1,03535
			7.	1,02775
			8.	1,02344
			9.	1,02479
			10.	1,0331


		Con 100 iteraciones
		-----------------------------------------------------------------
			1.	2,04954
			2.	2,03873
			3.	2,04624
			4.	2,04351
			5.	2,04123
			6.	2,04607
			7.	2,03421
			8.	2,05379
			9.	2,04879
			10.	2,04591


		Con 150 iteraciones
		-----------------------------------------------------------------
			1.	3,06502
			2.	3,05461
			3.	3,061
			4.	3,05706
			5.	3,07092
			6.	3,09942
			7.	3,02716
			8.	3,05609
			9.	3,06489
			10.	3,06922


		Con 200 iteraciones
		-----------------------------------------------------------------
			1.	4,06999
			2.	4,07584
			3.	4,20145
			4.	4,06534
			5.	4,09015
			6.	4,07562
			7.	4,05436
			8.	4,06841
			9.	4,07805
			10.	4,0555


